name,link,site-type,image,viewBox
FaceBook,https://www.facebook.com/apachebookkeeping/,major,"<path d=""M16 8.049c0-4.446-3.582-8.05-8-8.05C3.58 0-.002 3.603-.002 8.05c0 4.017 2.926 7.347 6.75 7.951v-5.625h-2.03V8.05H6.75V6.275c0-2.017 1.195-3.131 3.022-3.131.876 0 1.791.157 1.791.157v1.98h-1.009c-.993 0-1.303.621-1.303 1.258v1.51h2.218l-.354 2.326H9.25V16c3.824-.604 6.75-3.934 6.75-7.951z""/>",0 0 16 16
LinkedIn,https://www.linkedin.com/in/rachael-foster-aa474b1b7/,major,"<path d=""M0 1.146C0 .513.526 0 1.175 0h13.65C15.474 0 16 .513 16 1.146v13.708c0 .633-.526 1.146-1.175 1.146H1.175C.526 16 0 15.487 0 14.854V1.146zm4.943 12.248V6.169H2.542v7.225h2.401zm-1.2-8.212c.837 0 1.358-.554 1.358-1.248-.015-.709-.52-1.248-1.342-1.248-.822 0-1.359.54-1.359 1.248 0 .694.521 1.248 1.327 1.248h.016zm4.908 8.212V9.359c0-.216.016-.432.08-.586.173-.431.568-.878 1.232-.878.869 0 1.216.662 1.216 1.634v3.865h2.401V9.25c0-2.22-1.184-3.252-2.764-3.252-1.274 0-1.845.7-2.165 1.193v.025h-.016a5.54 5.54 0 0 1 .016-.025V6.169h-2.4c.03.678 0 7.225 0 7.225h2.4z""/>",0 0 16 16
Alignable,https://www.alignable.com/rimforest-ca/apache-bookkeeping,major,"<path d=""M 19.404729,6.6603717 C 18.054983,2.8459646 14.338933,0.09755752 9.9744377,0.09755752 c -0.7131003,0 -1.4085029,0.07500885 -2.0805445,0.21421239 C 7.4870815,0.39667257 7.0892366,0.50642478 6.7020104,0.63849557 6.7527439,0.78966372 6.8025335,0.94060177 6.853267,1.0917699 7.0984394,1.8266726 7.3537586,2.5933274 7.6215842,3.3572212 7.778268,3.8049735 7.9403792,4.2495044 8.105558,4.6871327 8.6294106,6.0738761 9.1950299,7.3697345 9.8078431,8.3430089 10.078028,8.7712035 10.358596,9.1292212 10.646715,9.412 c 0.418139,0.408177 0.85539,0.652991 1.314351,0.652991 0.672042,-4.6e-4 1.296182,-0.504814 1.879499,-1.3177167 0.499312,0.9753452 1.009006,2.2433627 1.451449,3.4462657 -0.934676,0.783221 -2.020608,1.254212 -3.329532,1.254442 h -0.0014 c -0.993432,0 -1.856845,-0.277026 -2.6263421,-0.746407 C 8.9706228,12.47954 8.6220956,12.22115 8.2990531,11.913062 7.3782995,11.033434 6.6154095,9.825469 5.9447837,8.4419469 5.7102299,7.9571504 5.4858227,7.4525664 5.2715623,6.929115 4.6743231,5.4751858 4.1424474,3.9013805 3.6193027,2.3337876 3.266764,2.6186372 2.9345187,2.9274159 2.6256345,3.2562124 0.99649989,4.9878584 0,7.2947257 0,9.8243186 c 0,2.2104604 0.76147411,4.2497344 2.0399578,5.8854334 0.2888268,0.369752 0.6045542,0.719487 0.9441146,1.044832 0.3600897,-0.993752 0.6991781,-2.014425 1.0196249,-2.978035 0.427577,-1.287345 0.8603454,-2.581363 1.3282732,-3.8150977 0.7105047,1.2924067 1.5333309,2.4018937 2.5232236,3.2184777 -0.1899555,0.554514 -0.372832,1.105345 -0.5507532,1.639151 -0.4372517,1.316566 -0.878515,2.642336 -1.3577694,3.90069 0.3756637,0.162672 0.7633619,0.303947 1.1614427,0.421062 0.9084832,0.265752 1.8707675,0.410938 2.8663235,0.410938 2.6803793,0 5.1141703,-1.037929 6.9080123,-2.720106 0.343335,-0.321434 0.660951,-0.665646 0.954497,-1.031717 C 17.725805,15.47115 17.616551,15.141664 17.506825,14.812637 17.263069,14.079575 17.007749,13.313841 16.739924,12.552018 16.582296,12.103345 16.421601,11.658814 16.256186,11.220956 15.733041,9.8355929 15.168366,8.538354 14.554609,7.5650797 14.285368,7.1359646 14.0048,6.7774867 13.715737,6.4951681 13.612146,6.3932389 13.50596,6.3014336 13.399537,6.2211327 13.079327,5.98 12.748733,5.8428673 12.403509,5.8428673 c -0.671333,0 -1.297361,0.5041238 -1.880678,1.3177168 C 10.022339,6.1840885 9.5138249,4.9176814 9.0704379,3.7145487 9.1872429,3.6167611 9.3064076,3.5235752 9.4281679,3.4356814 10.281198,2.8197345 11.255989,2.4598761 12.402802,2.4598761 h 0.0031 c 0.991309,0 1.853306,0.2761062 2.622567,0.7450266 0.365281,0.2224955 0.71192,0.4804247 1.035907,0.7887433 0.920753,0.8796283 1.682699,2.0880531 2.353325,3.4722655 0.235026,0.4852566 0.458489,0.9900708 0.673694,1.5137522 0.271601,0.6619646 0.529516,1.3494693 0.778935,2.0493983 0.05026,-0.395062 0.07976,-0.796336 0.07976,-1.2047434 0,-1.1074159 -0.193495,-2.1711151 -0.545326,-3.1639469"" />",0 0 20 20
MeWe,https://mewe.com/i/leahcarfoster,,,
RSS Feed,/feed.xml,major,"<path d=""M 1.6528764,0 C 0.73717096,0 0,0.73717096 0,1.6528764 V 18.347064 C 0,19.26277 0.73717096,20 1.6528764,20 H 18.347064 C 19.26277,20 20,19.26277 20,18.347064 V 1.6528764 C 20,0.73717096 19.26277,0 18.347064,0 Z m 1.9363584,3.5780134 c 7.0739552,0 12.8328092,5.7590338 12.8328102,12.8329876 H 14.15419 c 0,-5.848312 -4.7166421,-10.5651328 -10.5649552,-10.5651328 z m 0,4.1805308 c 4.7651115,0 8.6522212,3.8873458 8.6522212,8.6524568 H 9.9736006 c 0,-3.539457 -2.8449094,-6.384602 -6.3843658,-6.384602 z m 1.547811,5.5232308 a 1.5701439,1.5701439 0 0 1 0.01115,0 A 1.5701439,1.5701439 0 0 1 6.718343,14.85191 1.5701439,1.5701439 0 0 1 5.1482078,16.422045 1.5701439,1.5701439 0 0 1 3.5780727,14.85191 1.5701439,1.5701439 0 0 1 5.1370458,13.281775 Z"" />",0 0 20 20
