<?xml version="1.0" encoding="UTF-8"?>
<svg width="128" height="128" aria-label="Intuit QuickBooks" version="1.1" viewBox="0 0 146.03 141.71" xmlns="http://www.w3.org/2000/svg" xmlns:cc="http://creativecommons.org/ns#" xmlns:dc="http://purl.org/dc/elements/1.1/" xmlns:rdf="http://www.w3.org/1999/02/22-rdf-syntax-ns#">
 <metadata>
  <rdf:RDF>
   <cc:Work rdf:about="">
    <dc:format>image/svg+xml</dc:format>
    <dc:type rdf:resource="http://purl.org/dc/dcmitype/StillImage"/>
    <dc:title/>
   </cc:Work>
  </rdf:RDF>
 </metadata>
 <g transform="matrix(5.3028 0 0 5.3028 -1.0287 -2.0827)" fill="none">
  <g transform="translate(.08 .085)">
   <ellipse cx="13.883" cy="13.67" rx="13.769" ry="13.602" fill="#2ca01c"/>
   <path d="m3.937 13.67c0 2.921 2.397 5.29 5.355 5.29h0.765v-1.966h-0.765c-1.856 0-3.366-1.491-3.366-3.324 0-1.834 1.51-3.325 3.366-3.325h1.838v10.277c0 1.085 0.89 1.964 1.989 1.964v-14.206h-3.827c-2.958 0-5.355 2.368-5.355 5.29zm14.537-5.29h-0.765v1.966h0.765c1.856 0 3.366 1.491 3.366 3.324 0 1.834-1.51 3.325-3.366 3.325h-1.838v-10.277c0-1.085-0.89-1.964-1.99-1.964v14.206h3.828c2.957 0 5.355-2.368 5.355-5.29 0-2.92-2.398-5.29-5.355-5.29z" fill="#fff"/>
  </g>
 </g>
</svg>
